%YAML 1.1
%TAG !u! tag:unity3d.com,2011:
--- !u!21 &2100000
Material:
  serializedVersion: 6
  m_ObjectHideFlags: 0
  m_PrefabParentObject: {fileID: 0}
  m_PrefabInternal: {fileID: 0}
  m_Name: pl_ny_ve3_mat
  m_Shader: {fileID: 4800000, guid: 319f68f890dd03d4d908314de7eb0fd7, type: 3}
  m_ShaderKeywords: 
  m_LightmapFlags: 5
  m_CustomRenderQueue: -1
  stringTagMap: {}
  m_SavedProperties:
    serializedVersion: 2
    m_TexEnvs:
      data:
        first:
          name: _MainTex
        second:
          m_Texture: {fileID: 2800000, guid: 86023bf9fa8b082409281676828b34d8, type: 3}
          m_Scale: {x: 1, y: 1}
          m_Offset: {x: 0, y: 0}
      data:
        first:
          name: _BumpMap
        second:
          m_Texture: {fileID: 0}
          m_Scale: {x: 1, y: 1}
          m_Offset: {x: 0, y: 0}
      data:
        first:
          name: _Gloss
        second:
          m_Texture: {fileID: 2800000, guid: 85671bb0704d1d54a9c29950fca96e0b, type: 3}
          m_Scale: {x: 1, y: 1}
          m_Offset: {x: 0, y: 0}
      data:
        first:
          name: _Cube
        second:
          m_Texture: {fileID: 8900000, guid: 81f8c3590fe0fb04dbbfb6448f9a827d, type: 2}
          m_Scale: {x: 1, y: 1}
          m_Offset: {x: 0, y: 0}
    m_Floats:
      data:
        first:
          name: _Shininess
        second: 0.5001342
      data:
        first:
          name: _FresnelPower
        second: 1.8635714
      data:
        first:
          name: _FresnelBase
        second: 0
      data:
        first:
          name: _FresnelFading
        second: 0.4642857
      data:
        first:
          name: _LightingBase
        second: 0.5
      data:
        first:
          name: _LightingMul
        second: 0.5
      data:
        first:
          name: _ReflectionPower
        second: 1
    m_Colors:
      data:
        first:
          name: _Color
        second: {r: 1, g: 1, b: 1, a: 1}
