%YAML 1.1
%TAG !u! tag:unity3d.com,2011:
--- !u!21 &2100000
Material:
  serializedVersion: 6
  m_ObjectHideFlags: 0
  m_PrefabParentObject: {fileID: 0}
  m_PrefabInternal: {fileID: 0}
  m_Name: branch
  m_Shader: {fileID: 10511, guid: 0000000000000000f000000000000000, type: 0}
  m_ShaderKeywords: 
  m_LightmapFlags: 5
  m_CustomRenderQueue: -1
  stringTagMap: {}
  m_SavedProperties:
    serializedVersion: 2
    m_TexEnvs:
      data:
        first:
          name: _MainTex
        second:
          m_Texture: {fileID: 2800000, guid: 7de705bf24147e840b4228afcb3737b8, type: 3}
          m_Scale: {x: 1, y: 1}
          m_Offset: {x: 0, y: -1}
    m_Floats:
      data:
        first:
          name: _Cutoff
        second: 0.6283582
      data:
        first:
          name: _Occlusion
        second: 15.559702
      data:
        first:
          name: _SquashAmount
        second: 1
      data:
        first:
          name: _BaseLight
        second: 0.006716412
      data:
        first:
          name: _AO
        second: 2.835821
    m_Colors:
      data:
        first:
          name: _Scale
        second: {r: 1, g: 1, b: 1, a: 1}
      data:
        first:
          name: _Color
        second: {r: 0.8, g: 0.8, b: 0.8, a: 1}
