%YAML 1.1
%TAG !u! tag:unity3d.com,2011:
--- !u!21 &2100000
Material:
  serializedVersion: 6
  m_ObjectHideFlags: 0
  m_PrefabParentObject: {fileID: 0}
  m_PrefabInternal: {fileID: 0}
  m_Name: leaf1
  m_Shader: {fileID: 10511, guid: 0000000000000000f000000000000000, type: 0}
  m_ShaderKeywords: 
  m_LightmapFlags: 5
  m_CustomRenderQueue: -1
  stringTagMap: {}
  m_SavedProperties:
    serializedVersion: 2
    m_TexEnvs:
      data:
        first:
          name: _MainTex
        second:
          m_Texture: {fileID: 2800000, guid: b8c2cf5b78e890a48ac05d22a3e2b5a5, type: 3}
          m_Scale: {x: 1, y: 1}
          m_Offset: {x: 0, y: -1}
    m_Floats:
      data:
        first:
          name: _Cutoff
        second: 0.36999997
      data:
        first:
          name: _Occlusion
        second: 20
      data:
        first:
          name: _SquashAmount
        second: 1
      data:
        first:
          name: _BaseLight
        second: 0.23880596
      data:
        first:
          name: _AO
        second: 2.4
    m_Colors:
      data:
        first:
          name: _Scale
        second: {r: 1, g: 1, b: 1, a: 1}
      data:
        first:
          name: _Color
        second: {r: 0.5505891, g: 0.5671642, b: 0.4825128, a: 1}
